# Blender MTL File: 'full_console.blend'
# Material Count: 7

newmtl _defaultMat
Ns 96.078431
Ka 0.000000 0.000000 0.000000
Kd 1.000000 1.000000 1.000000
Ks 0.330000 0.330000 0.330000
Ke 0.000000 0.000000 0.000000
Ni 1.000000
d 1.000000
illum 2

newmtl _defaultMat.001
Ns 96.078431
Ka 0.000000 0.000000 0.000000
Kd 1.000000 1.000000 1.000000
Ks 0.330000 0.330000 0.330000
Ke 0.000000 0.000000 0.000000
Ni 1.000000
d 1.000000
illum 2

newmtl _defaultMat.002
Ns 96.078431
Ka 0.000000 0.000000 0.000000
Kd 1.000000 1.000000 1.000000
Ks 0.330000 0.330000 0.330000
Ke 0.000000 0.000000 0.000000
Ni 1.000000
d 1.000000
illum 2

newmtl glass
Ns 96.078431
Ka 0.000000 0.000000 0.000000
Kd 0.266667 0.266667 0.266667
Ks 0.330000 0.330000 0.330000
Ke 0.000000 0.000000 0.000000
Ni 1.000000
d 1.000000
illum 2

newmtl glass.001
Ns 96.078431
Ka 0.000000 0.000000 0.000000
Kd 0.266667 0.266667 0.266667
Ks 0.330000 0.330000 0.330000
Ke 0.000000 0.000000 0.000000
Ni 1.000000
d 1.000000
illum 2

newmtl glass.002
Ns 96.078431
Ka 0.000000 0.000000 0.000000
Kd 0.266667 0.266667 0.266667
Ks 0.330000 0.330000 0.330000
Ke 0.000000 0.000000 0.000000
Ni 1.000000
d 1.000000
illum 2

newmtl portal
Ns 96.078431
Ka 0.000000 0.000000 0.000000
Kd 0.505882 0.262745 0.564706
Ks 0.330000 0.330000 0.330000
Ke 0.000000 0.000000 0.000000
Ni 1.000000
d 1.000000
illum 2
