^C:\DEVELOPMENT\C++\SUNFALL-3D\SOURCE\TEMP\X64RELEASE\ACTOR.OBJ|C:\DEVELOPMENT\C++\SUNFALL-3D\SOURCE\TEMP\X64RELEASE\ACTORFACTORY.OBJ|C:\DEVELOPMENT\C++\SUNFALL-3D\SOURCE\TEMP\X64RELEASE\EVENTRECEIVER.OBJ|C:\DEVELOPMENT\C++\SUNFALL-3D\SOURCE\TEMP\X64RELEASE\GAME.OBJ|C:\DEVELOPMENT\C++\SUNFALL-3D\SOURCE\TEMP\X64RELEASE\RENDERCOMPONENT.OBJ|C:\DEVELOPMENT\C++\SUNFALL-3D\SOURCE\TEMP\X64RELEASE\STDAFX.OBJ|C:\DEVELOPMENT\C++\SUNFALL-3D\SOURCE\TEMP\X64RELEASE\STRING.OBJ|C:\DEVELOPMENT\C++\SUNFALL-3D\SOURCE\TEMP\X64RELEASE\SUNFALL.OBJ|C:\DEVELOPMENT\C++\SUNFALL-3D\SOURCE\TEMP\X64RELEASE\TRANSFORMCOMPONENT.OBJ
C:\WINDOWS\GLOBALIZATION\SORTING\SORTDEFAULT.NLS
C:\PROGRAM FILES (X86)\WINDOWS KITS\10\LIB\10.0.14393.0\UM\X64\KERNEL32.LIB
C:\PROGRAM FILES (X86)\WINDOWS KITS\10\LIB\10.0.14393.0\UM\X64\USER32.LIB
C:\PROGRAM FILES (X86)\WINDOWS KITS\10\LIB\10.0.14393.0\UM\X64\GDI32.LIB
C:\PROGRAM FILES (X86)\WINDOWS KITS\10\LIB\10.0.14393.0\UM\X64\WINSPOOL.LIB
C:\PROGRAM FILES (X86)\WINDOWS KITS\10\LIB\10.0.14393.0\UM\X64\COMDLG32.LIB
C:\PROGRAM FILES (X86)\WINDOWS KITS\10\LIB\10.0.14393.0\UM\X64\ADVAPI32.LIB
C:\PROGRAM FILES (X86)\WINDOWS KITS\10\LIB\10.0.14393.0\UM\X64\SHELL32.LIB
C:\PROGRAM FILES (X86)\WINDOWS KITS\10\LIB\10.0.14393.0\UM\X64\OLE32.LIB
C:\PROGRAM FILES (X86)\WINDOWS KITS\10\LIB\10.0.14393.0\UM\X64\OLEAUT32.LIB
C:\PROGRAM FILES (X86)\WINDOWS KITS\10\LIB\10.0.14393.0\UM\X64\UUID.LIB
C:\PROGRAM FILES (X86)\WINDOWS KITS\10\LIB\10.0.14393.0\UM\X64\ODBC32.LIB
C:\PROGRAM FILES (X86)\WINDOWS KITS\10\LIB\10.0.14393.0\UM\X64\ODBCCP32.LIB
C:\DEVELOPMENT\C++\SUNFALL-3D\SOURCE\TEMP\X64RELEASE\ACTOR.OBJ
C:\DEVELOPMENT\C++\SUNFALL-3D\SOURCE\TEMP\X64RELEASE\ACTORFACTORY.OBJ
C:\DEVELOPMENT\C++\SUNFALL-3D\SOURCE\TEMP\X64RELEASE\RENDERCOMPONENT.OBJ
C:\DEVELOPMENT\C++\SUNFALL-3D\SOURCE\TEMP\X64RELEASE\TRANSFORMCOMPONENT.OBJ
C:\DEVELOPMENT\C++\SUNFALL-3D\SOURCE\TEMP\X64RELEASE\EVENTRECEIVER.OBJ
C:\DEVELOPMENT\C++\SUNFALL-3D\SOURCE\TEMP\X64RELEASE\GAME.OBJ
C:\DEVELOPMENT\C++\SUNFALL-3D\SOURCE\TEMP\X64RELEASE\STRING.OBJ
C:\DEVELOPMENT\C++\SUNFALL-3D\SOURCE\TEMP\X64RELEASE\STDAFX.OBJ
C:\DEVELOPMENT\C++\SUNFALL-3D\SOURCE\TEMP\X64RELEASE\SUNFALL.OBJ
C:\PROGRAM FILES (X86)\MICROSOFT VISUAL STUDIO\2017\COMMUNITY\VC\TOOLS\MSVC\14.10.25017\BIN\HOSTX86\X64\C2.DLL
C:\PROGRAM FILES (X86)\MICROSOFT VISUAL STUDIO\2017\COMMUNITY\VC\TOOLS\MSVC\14.10.25017\LIB\X64\MSVCPRT.LIB
C:\PROGRAM FILES (X86)\MICROSOFT VISUAL STUDIO\2017\COMMUNITY\VC\TOOLS\MSVC\14.10.25017\LIB\X64\MSVCRT.LIB
C:\PROGRAM FILES (X86)\MICROSOFT VISUAL STUDIO\2017\COMMUNITY\VC\TOOLS\MSVC\14.10.25017\LIB\X64\OLDNAMES.LIB
C:\DEVELOPMENT\C++\SUNFALL-3D\SOURCE\SUNFALL\3RDPARTY\IRRLICHT-1.8.4\LIB\WIN64-VISUALSTUDIO\IRRLICHT.LIB
C:\PROGRAM FILES (X86)\MICROSOFT VISUAL STUDIO\2017\COMMUNITY\VC\TOOLS\MSVC\14.10.25017\LIB\X64\VCRUNTIME.LIB
C:\PROGRAM FILES (X86)\WINDOWS KITS\10\LIB\10.0.14393.0\UCRT\X64\UCRT.LIB
C:\PROGRAM FILES (X86)\MICROSOFT VISUAL STUDIO\2017\COMMUNITY\VC\TOOLS\MSVC\14.10.25017\BIN\HOSTX86\X64\1033\LINKUI.DLL
C:\PROGRAM FILES (X86)\WINDOWS KITS\10\BIN\X86\RC.EXE
C:\PROGRAM FILES (X86)\MICROSOFT VISUAL STUDIO\2017\COMMUNITY\VC\TOOLS\MSVC\14.10.25017\BIN\HOSTX86\X86\CVTRES.EXE
C:\WINDOWS\SYSTEM32\TZRES.DLL
